{
   "pagination": {
      "totalResults": 294,
      "begin": 1,
      "end": 24,
      "currentPage": 1,
      "totalPages": 13,
      "previousPage": 0,
      "nextPage": 2,
      "perPage": 24,
      "defaultPerPage": 24
   },
   "data": [{
         "id": "09048d6e3b269918a02e5349200ef25e",
         "name": "Ideal Spring Denim Wedges",
         "msrp": "50",
         "price": "30",
         "thumbnailImageUrl": "https://searchspring-demo-content.s3.amazonaws.com/demo/fashion/product_images_thumb_med/3463_copyright_reddressboutique_2017-2_thumb_med.jpg"
      },
      {
         "id": "dff28f5944306467f08c3c7251910916",
         "name": "This I Know Rose Gold Sandals",
         "msrp": "25",
         "price": "16",
         "thumbnailImageUrl": "https://searchspring-demo-content.s3.amazonaws.com/demo/fashion/product_images_thumb_med/6975_copyright_reddressboutique_2017_-5_thumb_med.jpg"
      },
      {
         "id": "d535c202e0695d6ee2f3b15270459531",
         "name": "Like My Style Blush Ankle-Strap Heels",
         "msrp": "50",
         "price": "28",
         "thumbnailImageUrl": "https://searchspring-demo-content.s3.amazonaws.com/demo/fashion/product_images_thumb_med/copyright_rdb_studio_3_6786_thumb_med.jpg"
      },
      {
         "id": "28ce29b65b2cea90926e6b45be3a4a3a",
         "name": "On The Upgrade Platform Wedges",
         "msrp": "50",
         "price": "32",
         "thumbnailImageUrl": "https://searchspring-demo-content.s3.amazonaws.com/demo/fashion/product_images_thumb_med/17_02_22_studio_set_31625_thumb_med.jpg"
      },
      {
         "id": "20409988343c727e472d78b96472aaa5",
         "name": "Strut In Style Nude Wedges",
         "msrp": "50",
         "price": "30",
         "thumbnailImageUrl": "https://searchspring-demo-content.s3.amazonaws.com/demo/fashion/product_images_thumb_med/2836_copyright_reddressboutique_2017__thumb_med.jpg"
      },
      {
         "id": "dbe39a9a84ce20695e152cf46c470514",
         "name": "Never Bora Boring Pom Sandals",
         "msrp": "25",
         "price": "24",
         "thumbnailImageUrl": "https://searchspring-demo-content.s3.amazonaws.com/demo/fashion/product_images_thumb_med/2m4a5778_thumb_med.jpg"
      },
      {
         "id": "50a5665effe510e3a2dc88649d5d938d",
         "name": "Higher Up Taupe Thigh High Boots",
         "msrp": "50",
         "price": "42",
         "thumbnailImageUrl": "https://searchspring-demo-content.s3.amazonaws.com/demo/fashion/product_images_thumb_med/16_12_studio_accessories_2_058_thumb_med.jpg"
      },
      {
         "id": "c7139689b86560e0437b8240d230c6bf",
         "name": "It's A Date High Heel Sandals",
         "msrp": "50",
         "price": "28",
         "thumbnailImageUrl": "https://searchspring-demo-content.s3.amazonaws.com/demo/fashion/product_images_thumb_med/5349_copyright_reddressboutique_2017__thumb_med.jpg"
      },
      {
         "id": "bb8388557b67dbac8ab7e546fff72351",
         "name": "Basically Perfect Nude Pointed Pumps",
         "msrp": "50",
         "price": "30",
         "thumbnailImageUrl": "https://searchspring-demo-content.s3.amazonaws.com/demo/fashion/product_images_thumb_med/16_12_studio_accessories_323_thumb_med.jpg"
      },
      {
         "id": "29b0902a514a0e761179294ca0bdfc72",
         "name": "Catch Up To Me Canvas Ankle Boots",
         "msrp": "50",
         "price": "32",
         "thumbnailImageUrl": "https://searchspring-demo-content.s3.amazonaws.com/demo/fashion/product_images_thumb_med/16_12_studio_accessories_2_034_thumb_med.jpg"
      },
      {
         "id": "86e3c9252deebddafcf830aa817b6957",
         "name": "The Higher The Better Over-The-Knee Boots",
         "msrp": "75",
         "price": "55",
         "thumbnailImageUrl": "https://searchspring-demo-content.s3.amazonaws.com/demo/fashion/product_images_thumb_med/478a1941_1_thumb_med.jpg"
      },
      {
         "id": "c89e21d6f36788ef801962abc0d37801",
         "name": "Outside The Box Nude Ankle-Strap Heels",
         "msrp": "50",
         "price": "28",
         "thumbnailImageUrl": "https://searchspring-demo-content.s3.amazonaws.com/demo/fashion/product_images_thumb_med/5399_copyright_reddressboutique_2017_-2_1_thumb_med.jpg"
      },
      {
         "id": "190a2f97e44d5ce6cb8afd6e1da116f4",
         "name": "Street Style Light Tan Over-The-Knee Boots",
         "msrp": "50",
         "price": "42",
         "thumbnailImageUrl": "https://searchspring-demo-content.s3.amazonaws.com/demo/fashion/product_images_thumb_med/16_12_studio_accessories_2_071_thumb_med.jpg"
      },
      {
         "id": "ab8d4305cf46ef1cfa68e3810751074c",
         "name": "For Shore Ivory Slide On Sandals",
         "msrp": "25",
         "price": "20",
         "thumbnailImageUrl": "https://searchspring-demo-content.s3.amazonaws.com/demo/fashion/product_images_thumb_med/shoesession0059_thumb_med.jpg"
      },
      {
         "id": "21a789c98facbb4e60fe87e7584cdb4c",
         "name": "High Style Heels",
         "msrp": "50",
         "price": "39",
         "thumbnailImageUrl": "https://searchspring-demo-content.s3.amazonaws.com/demo/fashion/product_images_thumb_med/1614_copyright_reddressboutique_2017-3_1_thumb_med.jpg"
      },
      {
         "id": "f147f069259c4e217c119ce5602e93bf",
         "name": "Basically Perfect Pointed Pumps",
         "msrp": "50",
         "price": "30",
         "thumbnailImageUrl": "https://searchspring-demo-content.s3.amazonaws.com/demo/fashion/product_images_thumb_med/16_12_studio_accessories_319_thumb_med.jpg"
      },
      {
         "id": "736c86e8fbc76230674b9d7730319ba9",
         "name": "Get Moving Chestnut Peep-Toe Booties",
         "msrp": "50",
         "price": "34",
         "thumbnailImageUrl": "https://searchspring-demo-content.s3.amazonaws.com/demo/fashion/product_images_thumb_med/844a8425_thumb_med.jpg"
      },
      {
         "id": "ba04b4eadb53c194b218cf620392f1d3",
         "name": "Nice And Smooth Velvet Sneakers",
         "msrp": "50",
         "price": "32",
         "thumbnailImageUrl": "https://searchspring-demo-content.s3.amazonaws.com/demo/fashion/product_images_thumb_med/copyright_rdb_studio_3_6812_thumb_med.jpg"
      },
      {
         "id": "ab55e91a273420440827210cbc4e0290",
         "name": "Casual Introduction Ankle-Strap Sandals",
         "msrp": "25",
         "price": "22",
         "thumbnailImageUrl": "https://searchspring-demo-content.s3.amazonaws.com/demo/fashion/product_images_thumb_med/7790_copyright_reddressboutique_2017__thumb_med.jpg"
      },
      {
         "id": "bb95a85eee3978645aecd19a8d4ba4ad",
         "name": "Walk Into My Life Slip-On Sneakers",
         "msrp": "25",
         "price": "22",
         "thumbnailImageUrl": "https://searchspring-demo-content.s3.amazonaws.com/demo/fashion/product_images_thumb_med/2754_copyright_reddressboutique_2017__thumb_med.jpg"
      },
      {
         "id": "3e172c6bc9be25273f1ccf65965727c3",
         "name": "Slither Hither Flats",
         "msrp": "25",
         "price": "22",
         "thumbnailImageUrl": "https://searchspring-demo-content.s3.amazonaws.com/demo/fashion/product_images_thumb_med/16_12_studio_accessories_305_1_thumb_med.jpg"
      },
      {
         "id": "9def2ab059f4ee2fe3798a36347fea5f",
         "name": "Wild At Heart Pointed Pumps",
         "msrp": "50",
         "price": "26",
         "thumbnailImageUrl": "https://searchspring-demo-content.s3.amazonaws.com/demo/fashion/product_images_thumb_med/16_12_studio_accessories_313_thumb_med.jpg"
      },
      {
         "id": "f9cb370758818807d420ef67eaed9d7e",
         "name": "Simply Classic Nude Ankle-Strap Heels",
         "msrp": "25",
         "price": "24",
         "thumbnailImageUrl": "https://searchspring-demo-content.s3.amazonaws.com/demo/fashion/product_images_thumb_med/5105_copyright_reddressboutique_2017__thumb_med.jpg"
      },
      {
         "id": "f0de74f3d6c2893ce1594611638db7f8",
         "name": "My Way Or The Highway Slip-On Sneakers",
         "msrp": "25",
         "price": "22",
         "thumbnailImageUrl": "https://searchspring-demo-content.s3.amazonaws.com/demo/fashion/product_images_thumb_med/17_1_12_studio_set_1_819_1_thumb_med.jpg"
      }
   ]
}